digital_logic_design/verilog1/h1_output.vcd
$date
	Sun May 03 01:05:50 2020
$end
$version
	Icarus Verilog
$end
$timescale
	1s
$end
$scope module TOP $end
$var wire 1 ! z $end
$var wire 1 " y $end
$var wire 1 # x $end
$var wire 1 $ w $end
$var wire 1 % out $end
$var reg 4 & num [3:0] $end
$scope module SEG_B $end
$var wire 1 % out $end
$var wire 1 ' out1 $end
$var wire 1 ( out2 $end
$var wire 1 ) out3 $end
$var wire 1 $ w $end
$var wire 1 # x $end
$var wire 1 " y $end
$var wire 1 ! z $end
$upscope $end
$upscope $end
$enddefinitions $end
#0
$dumpvars
0)
0(
1'
b0 &
1%
0$
0#
0"
0!
$end
#5
0%
0'
1!
b1 &
#10
1"
0!
b10 &
#15
1!
b11 &
#20
1%
1'
1(
1)
1#
0"
0!
b100 &
#25
0'
0)
1!
b101 &
#30
0(
1)
1"
0!
b110 &
#35
0%
0)
1!
b111 &
#40
1%
1'
1$
0#
0"
0!
b1000 &
#45
0'
1!
b1001 &
#50
1"
0!
b1010 &
#55
1!
b1011 &
#60
1'
1(
1)
1#
0"
0!
b1100 &
#65
0'
0)
1!
b1101 &
#70
0(
1)
1"
0!
b1110 &
#75
0)
1!
b1111 &
